…
fisheries_tidy$catch <- as.numeric(fisheries_tidy$catch)

#Ledford added for us to clean the data! just run and be happy we don't need to write
```

3.  How many countries are represented in the data? Provide a count and list their names.


```r
fisheries_tidy %>%
  distinct(country)
```

```
## # A tibble: 203 × 1
##    country            
##    <fct>              
##  1 Albania            
##  2 Algeria            
##  3 American Samoa     
##  4 Angola             
##  5 Anguilla           
##  6 Antigua and Barbuda
##  7 Argentina          
##  8 Aruba              
##  9 Australia          
## 10 Bahamas            
## # ℹ 193 more rows
```
…
7.  Which country caught the most sardines (*Sardina pilchardus*) between the years 1990-2000?


```r
fisheries_focus %>%
  filter(asfis_species_name == "Sardina pilchardus", between(year, 1990, 2000)) %>%
  count(country) %>%
  arrange(desc(n))
```

```
## # A tibble: 37 × 2
##    country            n
##    <fct>          <int>
##  1 Spain             33
##  2 France            25
##  3 Morocco           22
##  4 Portugal          22
##  5 Netherlands       15
##  6 Germany           14
##  7 United Kingdom    12
##  8 Albania           11
##  9 Algeria           11
## 10 Denmark           11
## # ℹ 27 more rows
```

8.  Which five countries caught the most cephalopods between 2008-2012?


```r
fisheries_focus %>%
  filter(isscaap_taxonomic_group == "Squids, cuttlefishes, octopuses", between(year, 2008, 2012)) %>%
  count(country) %>%
  arrange(desc(n))
```

```
## # A tibble: 122 × 2
##    country                      n
##    <fct>                    <int>
##  1 Spain                      116
##  2 Korea, Republic of          85
##  3 Portugal                    64
##  4 France                      59
##  5 United States of America    56
##  6 Australia                   51
##  7 Italy                       41
##  8 Greece                      40
##  9 Thailand                    40
## 10 China                       38
## # ℹ 112 more rows
```

9.  Which species had the highest catch total between 2008-2012? (hint: Osteichthyes is not a species)


```r
fisheries_focus %>%
  filter(asfis_species_name != "Osteichthyes", between(year, 2008, 2012)) %>%
  count(asfis_species_name) %>%
  arrange(desc(n))
```

```
## # A tibble: 1,471 × 2
##    asfis_species_name     n
##    <chr>              <int>
##  1 Thunnus albacares   1006
##  2 Thunnus obesus       923
##  3 Xiphias gladius      837
##  4 Elasmobranchii       761
##  5 Katsuwonus pelamis   761
##  6 Thunnus alalunga     755
##  7 Makaira nigricans    584
##  8 Mugilidae            482
##  9 Rajiformes           427
## 10 Scombroidei          417
## # ℹ 1,461 more rows
```

10. Use the data to do at least one analysis of your choice.

```r
fisheries_focus %>%
  group_by(country) %>%
  filter(asfis_species_name == "Osteichthyes") %>%
  count(year) %>%
  arrange(desc(n))
```

```
## # A tibble: 10,908 × 3
## # Groups:   country [201]
##    country  year     n
##    <fct>   <dbl> <int>
##  1 Japan    1974    17
##  2 Japan    1976    17
##  3 Japan    1989    17
##  4 Japan    1971    16
##  5 Japan    1972    16
##  6 Japan    1973    16
##  7 Japan    1977    16
##  8 Japan    1978    16
##  9 Japan    1980    16
## 10 Japan    1981    16
## # ℹ 10,898 more rows
```
…
