…
**4. How many total NA's are in each data set? Do these values make sense? Are NA's represented by values?**


```r
miss_var_summary(amniota) # it looks like the NAs are represented as -999
```

```
## # A tibble: 36 × 3
##    variable                  n_miss pct_miss
##    <chr>                      <int>    <dbl>
##  1 class                          0        0
##  2 order                          0        0
##  3 family                         0        0
##  4 genus                          0        0
##  5 species                        0        0
##  6 subspecies                     0        0
##  7 common_name                    0        0
##  8 female_maturity_d              0        0
##  9 litter_or_clutch_size_n        0        0
## 10 litters_or_clutches_per_y      0        0
## # ℹ 26 more rows
```

```r
miss_var_summary(amphibio)
```

```
## # A tibble: 38 × 3
##    variable n_miss pct_miss
##    <chr>     <int>    <dbl>
##  1 fruits     6774    100. 
##  2 flowers    6772     99.9
##  3 seeds      6772     99.9
##  4 leaves     6752     99.6
##  5 dry_cold   6735     99.4
##  6 vert       6657     98.2
##  7 obs        6651     98.2
##  8 wet_cold   6625     97.8
##  9 crepu      6608     97.5
## 10 dry_warm   6572     97.0
## # ℹ 28 more rows
```
…
```r
amniota %>%
  replace_with_na_all(condition = ~.x == -999)
```

```
## # A tibble: 21,322 × 36
##    class order     family genus species subspecies common_name female_maturity_d
##    <chr> <chr>     <chr>  <chr> <chr>        <dbl> <chr>                   <dbl>
##  1 Aves  Accipitr… Accip… Acci… albogu…         NA Pied Gosha…               NA 
##  2 Aves  Accipitr… Accip… Acci… badius          NA Shikra                   363.
##  3 Aves  Accipitr… Accip… Acci… bicolor         NA Bicolored …               NA 
##  4 Aves  Accipitr… Accip… Acci… brachy…         NA New Britai…               NA 
##  5 Aves  Accipitr… Accip… Acci… brevip…         NA Levant Spa…              363.
##  6 Aves  Accipitr… Accip… Acci… castan…         NA Chestnut-f…               NA 
##  7 Aves  Accipitr… Accip… Acci… chilen…         NA Chilean Ha…               NA 
##  8 Aves  Accipitr… Accip… Acci… chiono…         NA White-brea…              548.
##  9 Aves  Accipitr… Accip… Acci… cirroc…         NA Collared S…               NA 
## 10 Aves  Accipitr… Accip… Acci… cooper…         NA Cooper's H…              730 
## # ℹ 21,312 more rows
## # ℹ 28 more variables: litter_or_clutch_size_n <dbl>,
## #   litters_or_clutches_per_y <dbl>, adult_body_mass_g <dbl>,
## #   maximum_longevity_y <dbl>, gestation_d <dbl>, weaning_d <dbl>,
## #   birth_or_hatching_weight_g <dbl>, weaning_weight_g <dbl>, egg_mass_g <dbl>,
## #   incubation_d <dbl>, fledging_age_d <dbl>, longevity_y <dbl>,
## #   male_maturity_d <dbl>, inter_litter_or_interbirth_interval_y <dbl>, …
```

**6. Use the package `naniar` to produce a summary, including percentages, of missing data in each column for the `amniota` data.**


```r
miss_var_summary(amniota)
```

```
## # A tibble: 36 × 3
##    variable                  n_miss pct_miss
##    <chr>                      <int>    <dbl>
##  1 class                          0        0
##  2 order                          0        0
##  3 family                         0        0
##  4 genus                          0        0
##  5 species                        0        0
##  6 subspecies                     0        0
##  7 common_name                    0        0
##  8 female_maturity_d              0        0
##  9 litter_or_clutch_size_n        0        0
## 10 litters_or_clutches_per_y      0        0
## # ℹ 26 more rows
```

**7. Use the package `naniar` to produce a summary, including percentages, of missing data in each column for the `amphibio` data.**


```r
miss_var_summary(amphibio)
```

```
## # A tibble: 38 × 3
##    variable n_miss pct_miss
##    <chr>     <int>    <dbl>
##  1 fruits     6774    100. 
##  2 flowers    6772     99.9
##  3 seeds      6772     99.9
##  4 leaves     6752     99.6
##  5 dry_cold   6735     99.4
##  6 vert       6657     98.2
##  7 obs        6651     98.2
##  8 wet_cold   6625     97.8
##  9 crepu      6608     97.5
## 10 dry_warm   6572     97.0
## # ℹ 28 more rows
```
…
