…
Problem 9. (5 points) Among the YNP wolf packs, which one has had the highest overall persistence `persisty1` for the years represented in the data? Look this pack up online and tell me what is unique about its behavior- specifically, what prey animals does this pack specialize on?\
The Mollie's pack had the highest overall persistence. They have had female alphas with long reigns, which has allowed for a stable pack life. Their unity allows them to excel in hunting down bison, which are the hardest prey for wolves to kill. They use snow, which weakens bison, to their advantage. Sources: [Greater Yellowstone Coalition](https://greateryellowstone.org/blog/2020/studyingwolves) and [The Spokesman-Review](https://www.spokesman.com/stories/2012/jan/15/hungry-wolf-pack-rearranges-balance-in/).


```r
ynp %>%
  group_by(pack) %>%
  filter(persisty1 == 1) %>%
  select(pack, persisty1) %>%
  count(pack) %>%
  arrange(desc(n))
```

```
## # A tibble: 38 × 2
## # Groups:   pack [38]
##    pack            n
##    <chr>       <int>
##  1 mollies        26
##  2 cougar         20
##  3 yelldelta      18
##  4 druid          13
##  5 leopold        12
##  6 agate          10
##  7 8mile           9
##  8 canyon          9
##  9 gibbon/mary     9
## 10 nezperce        9
## # ℹ 28 more rows
```
…
