…
5.  (3 points) How do the number and types of injuries compare by county? Make a table (not a plot) that shows the number of injury types by county. Which county has the highest number of fatalities?\
San Luis Obispo has the highest number of fatalities - 3.


```r
sharks %>%
  group_by(county, injury) %>%
  summarize(count = n(), .groups = 'keep')
```

```
## # A tibble: 57 × 3
## # Groups:   county, injury [57]
##    county              injury count
##    <chr>               <chr>  <int>
##  1 Del Norte           minor      2
##  2 Del Norte           none       1
##  3 Humboldt            major      7
##  4 Humboldt            minor      2
##  5 Humboldt            none       9
##  6 Island - Catalina   minor      1
##  7 Island - Catalina   none       3
##  8 Island - Farallones major      7
##  9 Island - San Miguel fatal      1
## 10 Island - San Miguel major      2
## # ℹ 47 more rows
```
…
