…
## 2. Transform the fish data to only include the variables lakeid and length.  Store this as a new dataframe called "fishlength".   

```r
fishlength <- select(fish, "lakeid", "length")
```


## 3. Filter the `fish` data to include the samples from lake "BO".  

```r
filter(fish, lakeid == "BO")
```

```
## # A tibble: 197 × 6
##    lakeid fish_id annnumber length radii_length_mm scalelength
##    <chr>    <dbl> <chr>      <dbl>           <dbl>       <dbl>
##  1 BO         389 EDGE         104           1.50         1.50
##  2 BO         389 1            104           0.736        1.50
##  3 BO         390 EDGE         105           1.59         1.59
##  4 BO         390 1            105           0.698        1.59
##  5 BO         391 EDGE         107           1.43         1.43
##  6 BO         391 1            107           0.695        1.43
##  7 BO         392 EDGE         124           2.11         2.11
##  8 BO         392 2            124           1.36         2.11
##  9 BO         392 1            124           0.792        2.11
## 10 BO         393 EDGE         141           2.16         2.16
## # ℹ 187 more rows
```
…
