…
```r
bison_new <- bison %>%
  select(animal_code, animal_sex, animal_weight, animal_yob)
```


## Animals born between 1980-1990

```r
bison_new %>%
  filter(animal_yob >= 1980 & animal_yob <= 1990)
```

```
## # A tibble: 435 × 4
##    animal_code animal_sex animal_weight animal_yob
##    <chr>       <chr>              <dbl>      <dbl>
##  1 813         F                    890       1981
##  2 834         F                   1074       1983
##  3 B-301       F                   1060       1983
##  4 B-402       F                    989       1984
##  5 B-403       F                   1062       1984
##  6 B-502       F                    978       1985
##  7 B-503       F                   1068       1985
##  8 B-504       F                   1024       1985
##  9 B-601       F                    978       1986
## 10 B-602       F                   1188       1986
## # ℹ 425 more rows
```

```r
bison_new %>%
  filter(between(animal_yob, 1980, 1990))
```

```
## # A tibble: 435 × 4
##    animal_code animal_sex animal_weight animal_yob
##    <chr>       <chr>              <dbl>      <dbl>
##  1 813         F                    890       1981
##  2 834         F                   1074       1983
##  3 B-301       F                   1060       1983
##  4 B-402       F                    989       1984
##  5 B-403       F                   1062       1984
##  6 B-502       F                    978       1985
##  7 B-503       F                   1068       1985
##  8 B-504       F                   1024       1985
##  9 B-601       F                    978       1986
## 10 B-602       F                   1188       1986
## # ℹ 425 more rows
```

## How many male and female bison are represented between 1980-1990?

```r
males <- bison_new %>% #first pull out the males
  filter(animal_yob >= 1980 & animal_yob <= 1990) %>%
  filter(animal_sex == "M")
males
```

```
## # A tibble: 21 × 4
##    animal_code animal_sex animal_weight animal_yob
##    <chr>       <chr>              <dbl>      <dbl>
##  1 108         M                   1728       1987
##  2 888         M                   1726       1988
##  3 88Q         M                   1712       1988
##  4 892         M                   1306       1989
##  5 89F         M                   1682       1989
##  6 89N         M                   1594       1989
##  7 904         M                   1552       1990
##  8 905         M                   1572       1990
##  9 908         M                   1538       1990
## 10 90L         M                   1422       1990
## # ℹ 11 more rows
```
…
```r
females <- bison_new %>% #first pull out the males
  filter(animal_yob >= 1980 & animal_yob <= 1990) %>%
  filter(animal_sex == "F")
females
```

```
## # A tibble: 414 × 4
##    animal_code animal_sex animal_weight animal_yob
##    <chr>       <chr>              <dbl>      <dbl>
##  1 813         F                    890       1981
##  2 834         F                   1074       1983
##  3 B-301       F                   1060       1983
##  4 B-402       F                    989       1984
##  5 B-403       F                   1062       1984
##  6 B-502       F                    978       1985
##  7 B-503       F                   1068       1985
##  8 B-504       F                   1024       1985
##  9 B-601       F                    978       1986
## 10 B-602       F                   1188       1986
## # ℹ 404 more rows
```
…
